…
Pay attention to the red warning that signals "one or more parsing issues." It advises us to run the problems() function to see what went wrong. Let's do that.

``` 
problems(ppp_maryland_loans)
```

    ## # A tibble: 15,708 x 5
    ##      row col       expected    actual                     file                  
    ##    <int> <chr>     <chr>       <chr>                      <chr>                 
    ##  1    21 franchis… 1/0/T/F/TR… ZIPS Dry Cleaners          'data/ppp_loan_data/p…
    ##  2   126 franchis… 1/0/T/F/TR… Quiznos                    'data/ppp_loan_data/p…
    ##  3   375 franchis… 1/0/T/F/TR… Nissan North America, Inc… 'data/ppp_loan_data/p…
    ##  4   400 franchis… 1/0/T/F/TR… Hampton Inn & Suites       'data/ppp_loan_data/p…
    ##  5   405 franchis… 1/0/T/F/TR… Express Employment Profes… 'data/ppp_loan_data/p…
    ##  6   417 franchis… 1/0/T/F/TR… Mason's Lobster            'data/ppp_loan_data/p…
    ##  7   480 franchis… 1/0/T/F/TR… Smoothie King              'data/ppp_loan_data/p…
    ##  8   510 franchis… 1/0/T/F/TR… Restore Hyper Wellness + … 'data/ppp_loan_data/p…
    ##  9   554 franchis… 1/0/T/F/TR… Quiznos                    'data/ppp_loan_data/p…
    ## 10   652 franchis… 1/0/T/F/TR… Structural Elements        'data/ppp_loan_data/p…
    ## # … with 15,698 more rows
…
Let's start with the "franchise" column. The following code groups by the franchise name column, counts the number in each group, and then sorts from highest to lowest.

There are 192,959 NA values in this column. This makes sense. Not every business will be a franchisee of a larger company like Subway or Dunkin'. In this case, the presence of so many NAs isn't really concerning.

``` 
ppp_maryland_loans %>% 
  group_by(franchise_name) %>% 
  summarise(
    count=n()
  ) %>%
  arrange(desc(count))
```

    ## # A tibble: 582 x 2
    ##    franchise_name                                        count
    ##    <chr>                                                 <int>
    ##  1 <NA>                                                 192959
    ##  2 Subway                                                  275
    ##  3 7-Eleven, Inc - Individual Store Franchise Agreement    127
    ##  4 Dunkin' Donuts                                          109
    ##  5 IHOP                                                     53
    ##  6 Jiffy Lube                                               51
    ##  7 ZIPS Dry Cleaners                                        48
    ##  8 Holiday Inn Express (License Agreement)                  44
    ##  9 Dunkin' Donut/Baskin-Robbins Co-Brand                    42
    ## 10 Popeyes Louisiana Kitchen                                41
    ## # … with 572 more rows

Now let's try the "forgiveness_amount" column, which represents the amount of the loan that was forgiven, or not required to be paid back. In this case, there are 135,073 NA values. The rest have different dollar amounts.

``` 
ppp_maryland_loans %>% 
  group_by(forgiveness_amount) %>% 
  summarise(
    count=n()
  ) %>%
  arrange(desc(count))
```

    ## # A tibble: 58,637 x 2
    ##    forgiveness_amount  count
    ##                 <dbl>  <int>
    ##  1                NA  135073
    ##  2             20977.     15
    ##  3             21011.     14
    ##  4             21009.     13
    ##  5             21025.     11
    ##  6             21003.     10
    ##  7             21010.     10
    ##  8             20985.      9
    ##  9             20970.      8
    ## 10             20972.      8
    ## # … with 58,627 more rows
…
Now let's try and group and count the number of loans by city. To make it a bit more managable, let's use another string function from `stringr` and filter for cities that start with the uppercase "A" or lowercase "a" using the function `str_detect()` with a regular expression.

The filter function in the codeblock below says: look in the city column, and pluck out any value that starts with (the "\^" symbol means "starts with") a lowercase "a" OR (the vertical "\|," called a pipe, means OR) an uppercase "A."

``` 
md_loans %>%
  group_by(city) %>%
  summarise(
    count=n()
  ) %>%
  filter(str_detect(city, "^a|^A")) %>%
  arrange(city)
```

    ## # A tibble: 62 x 2
    ##    city                    count
    ##    <chr>                   <int>
    ##  1 ABDULREZAK H ISSAC          1
    ##  2 Abell                       3
    ##  3 ABELL                       2
    ##  4 aberdeen                    3
    ##  5 Aberdeen                  456
    ##  6 ABERDEEN                  192
    ##  7 Aberdeen Proving Ground    13
    ##  8 ABERDEEN PROVING GROUND     2
    ##  9 Abereen                     1
    ## 10 abigdon                     2
    ## # … with 52 more rows
…
The first merging technique that's part of the `refinr` package we'll try is the `key_collision_merge`.

The key collision merge function takes each string and extracts the key parts of it. It then puts every key in a bin based on the keys matching.

One rule you should follow when using this is: **do not overwrite your original fields**. Always work on a copy. If you overwrite your original field, how will you know if it did the right thing? How can you compare it to your original data? To follow this, I'm going to mutate a new field called clean_city and put the results of key collision merge there.

``` 
cleaned_md_loans <- md_loans %>%
  mutate(city_clean=key_collision_merge(city)) %>%
  select(id:city, city_clean, everything())

cleaned_md_loans
```

    ## # A tibble: 195,865 x 64
    ##         id name    slug   amount state address city  city_clean zip   naics_code
    ##      <dbl> <chr>   <chr>   <dbl> <chr> <chr>   <chr> <chr>      <chr>      <dbl>
    ##  1  9.94e7 TARBIY… tarbi… 149000 MD    6785 B… Elkr… Elkridge   2107…     611110
    ##  2  9.94e7 J &AMP… j-amp… 146000 MD    10413 … Unio… Union Bri… 21791     238310
    ##  3  9.94e7 DULANE… dulan… 140400 MD    4 Wind… PHOE… Phoenix    2113…     623110
    ##  4  9.94e7 QUARTE… quart… 139527 MD    4972 W… Rock… Rockville  20852     311920
    ##  5  9.94e7 ORCHAR… orcha… 133400 MD    1855 W… Owin… Owings     2073…     561730
    ##  6  9.94e7 FRUITL… fruit… 133000 MD    402 MA… EAST… EASTON     2160…     531120
    ##  7  9.94e7 YOUNIV… youni… 130520 MD    5000 T… Oakl… Oakland    2155…     621610
    ##  8  9.94e7 FRANKL… frank… 121862 MD    14805 … Spar… Sparks     2115…     812990
    ##  9  9.94e7 RACE P… race-… 121100 MD    1 RAIL… WEST… Westminst… 2115…     451110
    ## 10  9.94e7 VITAL … vital… 120165 MD    1701 P… Broo… Brookevil… 2083…     541330
    ## # … with 195,855 more rows, and 54 more variables: business_type <chr>,
    ## #   race <chr>, gender <chr>, veteran <chr>, non_profit <lgl>,
    ## #   jobs_retained <dbl>, date_approved <date>, lender <chr>,
    ## #   congressional_district <chr>, loan_range_sort_key <lgl>,
    ## #   previous_loan_range <lgl>, previous_name <lgl>, loan_number <dbl>,
    ## #   sba_office_code <dbl>, processing_method <chr>, loan_status <chr>,
    ## #   term <dbl>, sba_guaranty_percentage <dbl>, initial_approval_amount <dbl>,
    ## #   current_approval_amount <dbl>, undisbursed_amount <dbl>,
    ## #   franchise_name <chr>, servicing_lender_location_id <dbl>,
…
To examine changes `refinr` made, let's examine the changes it made to cities that start with the letter "A."

``` 
cleaned_md_loans %>%
  group_by(city_clean, city) %>%
  summarise(
    count=n()
  ) %>%
  filter(str_detect(city, "^a|^A")) %>%
  arrange(city)
```

    ## `summarise()` has grouped output by 'city_clean'. You can override using the `.groups` argument.

    ## # A tibble: 62 x 3
    ## # Groups:   city_clean [38]
    ##    city_clean              city                    count
    ##    <chr>                   <chr>                   <int>
    ##  1 ABDULREZAK H ISSAC      ABDULREZAK H ISSAC          1
    ##  2 Abell                   Abell                       3
    ##  3 Abell                   ABELL                       2
    ##  4 Aberdeen                aberdeen                    3
    ##  5 Aberdeen                Aberdeen                  456
    ##  6 Aberdeen                ABERDEEN                  192
    ##  7 Aberdeen Proving Ground Aberdeen Proving Ground    13
    ##  8 Aberdeen Proving Ground ABERDEEN PROVING GROUND     2
    ##  9 Abereen                 Abereen                     1
    ## 10 abigdon                 abigdon                     2
    ## # … with 52 more rows
It got a bunch of things right. It merged three variations of "Aberdeen" -- "aberdeen,""Aberdeen" and "ABERDEEN" -- and it didn't merge it with "Aberdeen Proving Ground," which are two distinct places. But it wasn't smart enough to convert "Abereen" to "Aberdeen."

It also merged "Annapolis" and "ANNAPOLIS" under "Annapolis," and was smart enough not to merge it with "Annapolis Junction," which is not the same city. But it wasn't smart enough to merge "Annapoils" or "Annalpolis."

There's another merging algorithim that's part of refinr that works a bit differently, called `n_gram_merge()`. Let's try applying that one.

``` 
cleaned_md_loans <- md_loans %>%
  mutate(city_clean=n_gram_merge(city)) %>%
  select(id:city, city_clean, everything())

cleaned_md_loans
```

    ## # A tibble: 195,865 x 64
    ##         id name    slug   amount state address city  city_clean zip   naics_code
    ##      <dbl> <chr>   <chr>   <dbl> <chr> <chr>   <chr> <chr>      <chr>      <dbl>
    ##  1  9.94e7 TARBIY… tarbi… 149000 MD    6785 B… Elkr… Elkridge   2107…     611110
    ##  2  9.94e7 J &AMP… j-amp… 146000 MD    10413 … Unio… Union Bri… 21791     238310
    ##  3  9.94e7 DULANE… dulan… 140400 MD    4 Wind… PHOE… Phoenix    2113…     623110
    ##  4  9.94e7 QUARTE… quart… 139527 MD    4972 W… Rock… Rockville  20852     311920
    ##  5  9.94e7 ORCHAR… orcha… 133400 MD    1855 W… Owin… Owings     2073…     561730
    ##  6  9.94e7 FRUITL… fruit… 133000 MD    402 MA… EAST… EASTON     2160…     531120
    ##  7  9.94e7 YOUNIV… youni… 130520 MD    5000 T… Oakl… Oakland    2155…     621610
    ##  8  9.94e7 FRANKL… frank… 121862 MD    14805 … Spar… Sparks     2115…     812990
    ##  9  9.94e7 RACE P… race-… 121100 MD    1 RAIL… WEST… Westminst… 2115…     451110
    ## 10  9.94e7 VITAL … vital… 120165 MD    1701 P… Broo… Brookevil… 2083…     541330
    ## # … with 195,855 more rows, and 54 more variables: business_type <chr>,
    ## #   race <chr>, gender <chr>, veteran <chr>, non_profit <lgl>,
    ## #   jobs_retained <dbl>, date_approved <date>, lender <chr>,
    ## #   congressional_district <chr>, loan_range_sort_key <lgl>,
    ## #   previous_loan_range <lgl>, previous_name <lgl>, loan_number <dbl>,
    ## #   sba_office_code <dbl>, processing_method <chr>, loan_status <chr>,
    ## #   term <dbl>, sba_guaranty_percentage <dbl>, initial_approval_amount <dbl>,
    ## #   current_approval_amount <dbl>, undisbursed_amount <dbl>,
    ## #   franchise_name <chr>, servicing_lender_location_id <dbl>,
…
To examine changes `refinr` made with this algorithm, let's again look at cities that start with the letter "A." Examining Aberdeen and Annapolis, we see there wasn't a substantial change from the previous method.

``` 
cleaned_md_loans %>%
  group_by(city_clean, city) %>%
  summarise(
    count=n()
  ) %>%
  filter(str_detect(city, "^a|^A")) %>%
  arrange(city)
```

    ## `summarise()` has grouped output by 'city_clean'. You can override using the `.groups` argument.

    ## # A tibble: 62 x 3
    ## # Groups:   city_clean [36]
    ##    city_clean              city                    count
    ##    <chr>                   <chr>                   <int>
    ##  1 ABDULREZAK H ISSAC      ABDULREZAK H ISSAC          1
    ##  2 Abell                   Abell                       3
    ##  3 Abell                   ABELL                       2
    ##  4 Aberdeen                aberdeen                    3
    ##  5 Aberdeen                Aberdeen                  456
    ##  6 Aberdeen                ABERDEEN                  192
    ##  7 Aberdeen Proving Ground Aberdeen Proving Ground    13
    ##  8 Aberdeen Proving Ground ABERDEEN PROVING GROUND     2
    ##  9 Abereen                 Abereen                     1
    ## 10 Abingdon                abigdon                     2
    ## # … with 52 more rows
…
``` 
voters_by_county
```

    ## # A tibble: 25 x 10
    ##    County              DEM    REP   BAR   GRN   LIB   WCP   OTH    UNA  TOTAL
    ##    <chr>             <dbl>  <dbl> <dbl> <dbl> <dbl> <dbl> <dbl>  <dbl>  <dbl>
    ##  1 Allegany          12820  22530    20    74   204    19   395   7674  43736
    ##  2 Anne Arundel     174494 135457   105   564  1922   197  2715  90162 405616
    ##  3 Baltimore City   311610  30163   130   802   951   290  3289  52450 399685
    ##  4 Baltimore County 313870 142534   134   898  2227   297  5872 100576 566408
    ##  5 Calvert           24587  28181    20    89   332    30   567  14178  67984
    ##  6 Caroline           6629  10039     2    33    86    17   163   4208  21177
    ##  7 Carroll           33662  63967    27   155   670    38  1072  25770 125361
    ##  8 Cecil             21601  30880     8   103   341    49   727  15110  68819
    ##  9 Charles           72416  24711    19   112   349    83   763  19849 118302
    ## 10 Dorchester         9848   8730     4    19    78    12   148   3348  22187
    ## # … with 15 more rows
…
``` 
maryland_ppp %>% left_join(naics_codes, by="naics_code") %>% select(name, naics_code, title) %>% nrow()
```

    ## [1] 195869

Remove the nrow and run it again for yourself. By default, `dplyr` will do a "natural" join, where it'll match all the matching columns in both tables. So if we take out the by, it'll use all the common columns between the tables. That may not be right in every instance but let's try it. If it works, we should get 195,869 rows.

``` 
maryland_ppp %>% left_join(naics_codes) %>% select(name, naics_code, title)
```

    ## Joining, by = "naics_code"

    ## # A tibble: 195,869 x 3
    ##    name                       naics_code title                                  
    ##    <chr>                           <dbl> <chr>                                  
    ##  1 BAYWOOD HOTELS INC.            721110 Hotels (except Casino Hotels) and Mote…
    ##  2 PARTNERS ELECTRIC SERVICE…     238210 Electrical Contractors and Other Wirin…
    ##  3 RP3 LLC                        541810 Advertising Agencies                   
    ##  4 SUSHI KO CHEVY CHASE LLC.      722511 Full-Service Restaurants               
    ##  5 VILLAGE ACADEMY OF MARYLA…     611110 Elementary and Secondary Schools       
    ##  6 GOSHEN HOUSE TRADING LLC       721199 All Other Traveler Accommodation       
    ##  7 WEAVER BOAT WORKS              336612 Boat Building                          
    ##  8 BOBS OVERHEAD DOOR REPAIR…     238290 Other Building Equipment Contractors   
    ##  9 PARENTS FOR MONTESSORI ED…     611110 Elementary and Secondary Schools       
    ## 10 HARVEST PRINCE FREDERICK …     722511 Full-Service Restaurants               
    ## # … with 195,859 more rows
…
We can fix that using our pal `mutate`. Let's change the ZCTA data to be a character, since zip codes aren't really useful as numbers (nobody needs to know the average zip code value).

``` 
maryland_zcta <- maryland_zcta %>% mutate(across(ZCTA5N, as.character))
```

Now we can re-run the join:

``` 
maryland_ppp_with_naics_and_demographics <- maryland_ppp_with_naics %>% left_join(maryland_zcta, by=c("zip"="ZCTA5N"))

maryland_ppp_with_naics_and_demographics
```

    ## # A tibble: 195,869 x 95
    ##         id name  amount state address city  zip   naics_code business_type race 
    ##      <dbl> <chr>  <dbl> <chr> <chr>   <chr> <chr>      <dbl> <chr>         <chr>
    ##  1  9.38e7 BAYW… 2   e6 MD    9130 G… Colu… 2104…     721110 Corporation   Unan…
    ##  2  9.38e7 PART… 1.09e6 MD    4857 W… Lanh… 2070…     238210 Corporation   Unan…
    ##  3  9.38e7 RP3 … 7.88e5 MD    7250 W… Beth… 2081…     541810 Limited  Lia… Unan…
    ##  4  9.38e7 SUSH… 6.56e5 MD    5455 W… Chev… 2081…     722511 Limited  Lia… Unan…
    ##  5  9.38e7 VILL… 4.70e5 MD    8601 A… Capi… 2074…     611110 Limited  Lia… Unan…
    ##  6  9.38e7 GOSH… 3.46e5 MD    4310 P… Bren… 2072…     721199 Limited  Lia… Blac…
    ##  7  9.38e7 WEAV… 3.31e5 MD    389 De… Trac… 2077…     336612 Corporation   Unan…
    ##  8  9.38e7 BOBS… 3.18e5 MD    100 Ey… Essex 2122…     238290 Corporation   Unan…
    ##  9  9.38e7 PARE… 2.84e5 MD    1641 W… Anna… 2140…     611110 Non-Profit O… Unan…
    ## 10  9.38e7 HARV… 2.42e5 MD    680 Pr… Prin… 2067…     722511 Limited  Lia… Asian
    ## # … with 195,859 more rows, and 85 more variables: gender <chr>, veteran <chr>,
    ## #   non_profit <lgl>, jobs_retained <dbl>, date_approved <dttm>, lender <chr>,
    ## #   congressional_district <chr>, loan_number <dbl>, sba_office_code <dbl>,
    ## #   processing_method <chr>, loan_status <chr>, term <dbl>,
    ## #   sba_guaranty_percentage <dbl>, initial_approval_amount <dbl>,
    ## #   current_approval_amount <dbl>, undisbursed_amount <dbl>,
    ## #   franchise_name <chr>, servicing_lender_location_id <dbl>,
    ## #   servicing_lender_name <chr>, servicing_lender_address <chr>,
    ## #   servicing_lender_city <chr>, servicing_lender_state <chr>,
…
# display the tables below
naics_industry
```

    ## [[1]]
    ## # A tibble: 4 x 3
    ##   Conversion               `Reference Month Implemented` `Date Released` 
    ##   <chr>                    <chr>                         <chr>           
    ## 1 SIC to NAICS 2002        May 2003                      June 6, 2003    
    ## 2 NAICS 2002 to NAICS 2007 January 2008                  February 1, 2008
    ## 3 NAICS 2007 to NAICS 2012 January 2012                  February 3, 2012
    ## 4 NAICS 2012 to NAICS 2017 January 2018                  February 2, 2018
    ## 
    ## [[2]]
    ## # A tibble: 21 x 2
    ##    Sector Description                                  
    ##    <chr>  <chr>                                        
    ##  1 11     Agriculture, Forestry, Fishing and Hunting   
    ##  2 21     Mining, Quarrying, and Oil and Gas Extraction
    ##  3 22     Utilities                                    
    ##  4 23     Construction                                 
    ##  5 31-33  Manufacturing                                
    ##  6 42     Wholesale Trade                              
    ##  7 44-45  Retail Trade                                 
    ##  8 48-49  Transportation and Warehousing               
    ##  9 51     Information                                  
    ## 10 52     Finance and Insurance                        
    ## # … with 11 more rows
    ## 
    ## [[3]]
…
# Just keep the second dataframe in our list

naics_industry <- naics_industry[[2]]


# show the dataframe

naics_industry
```

    ## # A tibble: 21 x 2
    ##    Sector Description                                  
    ##    <chr>  <chr>                                        
    ##  1 11     Agriculture, Forestry, Fishing and Hunting   
    ##  2 21     Mining, Quarrying, and Oil and Gas Extraction
    ##  3 22     Utilities                                    
    ##  4 23     Construction                                 
    ##  5 31-33  Manufacturing                                
    ##  6 42     Wholesale Trade                              
    ##  7 44-45  Retail Trade                                 
    ##  8 48-49  Transportation and Warehousing               
    ##  9 51     Information                                  
    ## 10 52     Finance and Insurance                        
    ## # … with 11 more rows
…
