…
Each hospital exists inside of a county, so we're going to first calculate the total number of beds in each county. We do this by first converting the md_hospitals data to a standard dataframe (instead of a spatial dataframe) using as_tibble(), then grouping by county and totaling the number of beds. Finally, let's sort by total_beds to see which county has the most.

``` 
md_beds_by_county <- md_hospitals %>%
  as_tibble() %>%
  group_by(COUNTY) %>%
  summarise(
    total_beds = sum(BEDS)
  ) %>%
  arrange(desc(total_beds))

md_beds_by_county
```

    ## # A tibble: 22 x 2
    ##    COUNTY          total_beds
    ##    <chr>                <dbl>
    ##  1 BALTIMORE CITY        4505
    ##  2 MONTGOMERY            1298
    ##  3 BALTIMORE             1152
    ##  4 PRINCE GEORGE'S        789
    ##  5 ANNE ARUNDEL           673
    ##  6 ALLEGANY               371
    ##  7 HOWARD                 331
    ##  8 FREDERICK              308
    ##  9 WICOMICO               281
    ## 10 HARFORD                255
    ## # … with 12 more rows
…
Next, we'll go out and get population data for each county from tidycensus. The variable for total population is B01001_001.

``` 
md_county_population <- get_acs(geography = "county",
              variables = c(population = "B01001_001"),
              state = "MD")
```

    ## Getting data from the 2015-2019 5-year ACS

``` 
md_county_population
```

    ## # A tibble: 24 x 5
    ##    GEOID NAME                          variable   estimate   moe
    ##    <chr> <chr>                         <chr>         <dbl> <dbl>
    ##  1 24001 Allegany County, Maryland     population    71445    NA
    ##  2 24003 Anne Arundel County, Maryland population   571275    NA
    ##  3 24005 Baltimore County, Maryland    population   828018    NA
    ##  4 24009 Calvert County, Maryland      population    91511    NA
    ##  5 24011 Caroline County, Maryland     population    33049    NA
    ##  6 24013 Carroll County, Maryland      population   167699    NA
    ##  7 24015 Cecil County, Maryland        population   102552    NA
    ##  8 24017 Charles County, Maryland      population   159428    NA
    ##  9 24019 Dorchester County, Maryland   population    32138    NA
    ## 10 24021 Frederick County, Maryland    population   251422    NA
    ## # … with 14 more rows
…
``` 
md_beds_by_county
```

    ## # A tibble: 22 x 2
    ##    COUNTY          total_beds
    ##    <chr>                <dbl>
    ##  1 BALTIMORE CITY        4505
    ##  2 MONTGOMERY            1298
    ##  3 BALTIMORE             1152
    ##  4 PRINCE GEORGE'S        789
    ##  5 ANNE ARUNDEL           673
    ##  6 ALLEGANY               371
    ##  7 HOWARD                 331
    ##  8 FREDERICK              308
    ##  9 WICOMICO               281
    ## 10 HARFORD                255
    ## # … with 12 more rows
…
View(county_totals)
```

There are totals for all of Maryland's jurisdictions, plus one for "Unknown" and one that's NA. All but the last one have roughly the same number of records. What's going on with the NA records?

``` 
county_vaccinations_by_date %>%
  filter(is.na(county))
```

    ## # A tibble: 208 x 13
    ##    objectid vaccination_date county first_dose_daily first_dose_cumulative
    ##       <dbl> <date>           <chr>             <dbl>                 <dbl>
    ##  1        1 2021-01-08       <NA>               8000                  8000
    ##  2        2 2021-01-13       <NA>                  1                  8001
    ##  3        3 2021-01-26       <NA>                  1                  8002
    ##  4        4 2021-02-06       <NA>                  1                  8003
    ##  5        5 2021-02-10       <NA>                 NA                  8003
    ##  6        6 2021-02-11       <NA>                  1                  8004
    ##  7        7 2021-02-13       <NA>                  1                  8005
    ##  8        8 2021-02-23       <NA>                  1                  8006
    ##  9        9 2021-03-06       <NA>                 NA                  8006
    ## 10       10 2021-03-08       <NA>                  1                  8007
    ## # … with 198 more rows, and 8 more variables: second_dose_daily <dbl>,
    ## #   second_dose_cumulative <dbl>, single_dose_daily <dbl>,
    ## #   single_dose_cumulative <dbl>, at_least_one_dose <dbl>,
    ## #   fully_vaccinated <dbl>, full_vaccinated_cumulative <dbl>,
    ## #   at_least_one_dose_cumulative <dbl>
…
``` 
county_vaccinations_by_date <- county_vaccinations_by_date %>%
  filter(!is.na(county))
```

Now we can start to interview this data.

Let's look at the most recent date, and that's something that takes on different meaning when we're talking about updating data. We need to make this generic so that every time we pull this up and run it, it's the most recent date at the top. This time, it's very simple:

``` 
county_vaccinations_by_date %>% arrange(desc(vaccination_date))
```

    ## # A tibble: 8,555 x 13
    ##    objectid vaccination_date county        first_dose_daily first_dose_cumulati…
    ##       <dbl> <date>           <chr>                    <dbl>                <dbl>
    ##  1      892 2021-11-23       Baltimore                  471               523442
    ##  2     1256 2021-11-23       Anne Arundel               235               377615
    ##  3     1544 2021-11-23       Baltimore Ci…              232               353969
    ##  4     1833 2021-11-23       Allegany                    13                32895
    ##  5     2459 2021-11-23       Cecil                       31                49289
    ##  6     2737 2021-11-23       Carroll                     85               108660
    ##  7     3028 2021-11-23       Calvert                     32                58787
    ##  8     3221 2021-11-23       Charles                     47                96284
    ##  9     3704 2021-11-23       Harford                     98               152295
    ## 10     4069 2021-11-23       Caroline                     4                15100
    ## # … with 8,545 more rows, and 8 more variables: second_dose_daily <dbl>,
    ## #   second_dose_cumulative <dbl>, single_dose_daily <dbl>,
    ## #   single_dose_cumulative <dbl>, at_least_one_dose <dbl>,
    ## #   fully_vaccinated <dbl>, full_vaccinated_cumulative <dbl>,
    ## #   at_least_one_dose_cumulative <dbl>
…
Now let's load the data we'll be using. It has five fields:

- state_name
- vote_2016: whether Trump or Clinton won the state's electoral vote.
- pct_trump: the percentage of the vote Trump received in the state.
- businesses_receiving_ppe_pct: the percentage of the state's small businesses that received a PPP loan.
- ppe_amount_per_employee: the average amount of money provided by PPP per small business employee in the state.

``` 
reveal_data <- read_rds("data/reveal_data.rds")

reveal_data
```

    ## # A tibble: 51 x 5
    ##    state_name   vote_2016 pct_trump businesses_receiving_p… ppe_amount_per_empl…
    ##    <chr>        <chr>         <dbl>                   <dbl>                <dbl>
    ##  1 North Dakota Trump          63.0                      58                 7928
    ##  2 Nebraska     Trump          58.8                      56                 7244
    ##  3 South Dakota Trump          61.5                      53                 6541
    ##  4 Oklahoma     Trump          65.3                      50                 6499
    ##  5 Mississippi  Trump          57.9                      49                 5674
    ##  6 Iowa         Trump          51.2                      48                 6642
    ##  7 Kansas       Trump          56.6                      47                 7087
    ##  8 Hawaii       Clinton        29.4                      47                 7417
    ##  9 Maine        Clinton        43.5                      45                 6617
    ## 10 Arkansas     Trump          60.6                      44                 5549
    ## # … with 41 more rows
…
