…
In our case, the pattern that you'll use many, many times is: `data %>% group_by(COLUMN NAME) %>% summarize(VARIABLE NAME = AGGREGATE FUNCTION(COLUMN NAME))`

In our dataset, the column with county information is called "project_county_name"

Here's the code to count the number of loans in each county:

``` 
ppp_maryland_loans %>%
  group_by(project_county_name) %>%
  summarise(
    count_loans = n()
  )
```

    ## # A tibble: 24 x 2
    ##    project_county_name count_loans
    ##    <chr>                     <int>
    ##  1 ALLEGANY                   1293
    ##  2 ANNE ARUNDEL              17336
    ##  3 BALTIMORE                 28789
    ##  4 BALTIMORE CITY            20004
    ##  5 CALVERT                    1870
    ##  6 CAROLINE                    828
    ##  7 CARROLL                    4040
    ##  8 CECIL                      1686
    ##  9 CHARLES                    4398
    ## 10 DORCHESTER                 1082
    ## # … with 14 more rows
…
When we run that, we get a list of counties with a count next to them. But it's not in any order.

So we'll add another "and then do this" symbol -- %\>% -- and use a new function called `arrange()`. Arrange does what you think it does -- it arranges data in order. By default, it's in ascending order -- smallest to largest. But if we want to know the county with the most loans, we need to sort it in descending order. That looks like this:

``` 
ppp_maryland_loans %>%
  group_by(project_county_name) %>%
  summarise(
    count_loans = n()
  ) %>% 
  arrange(desc(count_loans))
```

    ## # A tibble: 24 x 2
    ##    project_county_name count_loans
    ##    <chr>                     <int>
    ##  1 MONTGOMERY                38781
    ##  2 PRINCE GEORGES            34408
    ##  3 BALTIMORE                 28789
    ##  4 BALTIMORE CITY            20004
    ##  5 ANNE ARUNDEL              17336
    ##  6 HOWARD                    12011
    ##  7 FREDERICK                  6666
    ##  8 HARFORD                    6300
    ##  9 CHARLES                    4398
    ## 10 CARROLL                    4040
    ## # … with 14 more rows
…
We can group by "project_county_name" and "race" to see how many loans fell in each category in each county. We'll sort alphabetically by county and then race.

``` 
ppp_maryland_loans %>%
  group_by(project_county_name,race) %>%
  summarise(
    count_loans = n()
  ) %>% 
  arrange(project_county_name,race)
```

    ## `summarise()` has grouped output by 'project_county_name'. You can override using the `.groups` argument.

    ## # A tibble: 126 x 3
    ## # Groups:   project_county_name [24]
    ##    project_county_name race                                      count_loans
    ##    <chr>               <chr>                                           <int>
    ##  1 ALLEGANY            American Indian or Alaska Native                    1
    ##  2 ALLEGANY            Asian                                              14
    ##  3 ALLEGANY            Black or African American                          11
    ##  4 ALLEGANY            Unanswered                                       1035
    ##  5 ALLEGANY            White                                             232
    ##  6 ANNE ARUNDEL        American Indian or Alaska Native                   21
    ##  7 ANNE ARUNDEL        Asian                                             544
    ##  8 ANNE ARUNDEL        Black or African American                        1013
    ##  9 ANNE ARUNDEL        Native Hawaiian or Other Pacific Islander          10
    ## 10 ANNE ARUNDEL        Unanswered                                      13894
    ## # … with 116 more rows
…
In the last example, we grouped like records together and counted them, but there's so much more we can to summarize each group.

Let's say we wanted to know the total dollar amount of loans to each county? For that, we could use the `sum()` function to add up all of the loan values in the column "amount." We put the column we want to total -- "amount" -- inside the sum() function `sum(amount)`. Note that we can simply add a new summarize function here, keeping our count_loans field in our output table.

``` 
ppp_maryland_loans %>%
  group_by(project_county_name) %>%
  summarise(
    count_loans = n(),
    total_loans_amount = sum(amount)
  ) %>% 
  arrange(desc(total_loans_amount))
```

    ## # A tibble: 24 x 3
    ##    project_county_name count_loans total_loans_amount
    ##    <chr>                     <int>              <dbl>
    ##  1 MONTGOMERY                38781        3191350613.
    ##  2 BALTIMORE                 28789        2241954213.
    ##  3 PRINCE GEORGES            34408        1993351125.
    ##  4 ANNE ARUNDEL              17336        1533274782.
    ##  5 BALTIMORE CITY            20004        1454393232.
    ##  6 HOWARD                    12011        1287751670.
    ##  7 FREDERICK                  6666         611545614.
    ##  8 HARFORD                    6300         458507678.
    ##  9 CARROLL                    4040         326178266.
    ## 10 WASHINGTON                 3338         284712867.
    ## # … with 14 more rows
We can also calculate the average size loan in each county -- the mean -- and the loan amount that sits at the midpoint of our data -- the median.

``` 
ppp_maryland_loans %>%
  group_by(project_county_name) %>%
  summarise(
    count_loans = n(),
    total_loans_amount = sum(amount),
    mean_loan_amount = mean(amount),
    median_loan_amount = median(amount)
  ) %>% 
  arrange(desc(mean_loan_amount))
```

    ## # A tibble: 24 x 5
    ##    project_county_name count_loans total_loans_amount mean_loan_amount
    ##    <chr>                     <int>              <dbl>            <dbl>
    ##  1 HOWARD                    12011        1287751670.          107214.
    ##  2 FREDERICK                  6666         611545614.           91741.
    ##  3 ANNE ARUNDEL              17336        1533274782.           88445.
    ##  4 SAINT MARYS                1809         154853058.           85601.
    ##  5 WASHINGTON                 3338         284712867.           85294.
    ##  6 WICOMICO                   2718         228878462.           84208.
    ##  7 ALLEGANY                   1293         107943361.           83483.
    ##  8 MONTGOMERY                38781        3191350613.           82292.
    ##  9 CARROLL                    4040         326178266.           80737.
    ## 10 BALTIMORE                 28789        2241954213.           77875.
    ## # … with 14 more rows, and 1 more variable: median_loan_amount <dbl>
…
``` 
ppp_maryland_loans %>%
  group_by(project_county_name) %>%
  summarise(
    count_loans = n(),
    total_loans_amount = sum(amount),
    mean_loan_amount = mean(amount),
    median_loan_amount = median(amount),
    min_loan_amount = min(amount),
    max_loan_amount = max(amount)
  ) %>% 
  arrange(desc(max_loan_amount))
```

    ## # A tibble: 24 x 7
    ##    project_county_name count_loans total_loans_amount mean_loan_amount
    ##    <chr>                     <int>              <dbl>            <dbl>
    ##  1 ANNE ARUNDEL              17336        1533274782.           88445.
    ##  2 BALTIMORE                 28789        2241954213.           77875.
    ##  3 CARROLL                    4040         326178266.           80737.
    ##  4 GARRETT                    1196          84889005.           70977.
    ##  5 HOWARD                    12011        1287751670.          107214.
    ##  6 MONTGOMERY                38781        3191350613.           82292.
    ##  7 PRINCE GEORGES            34408        1993351125.           57933.
    ##  8 FREDERICK                  6666         611545614.           91741.
    ##  9 BALTIMORE CITY            20004        1454393232.           72705.
    ## 10 CHARLES                    4398         238654940.           54264.
    ## # … with 14 more rows, and 3 more variables: median_loan_amount <dbl>,
    ## #   min_loan_amount <dbl>, max_loan_amount <dbl>

From this, we can see that the largest loan amounts in Anne Arundel County, Baltimore County, Carroll County, Garrett County and Howard County were \$10 million, the maximum loan value authorized under the program.

It would be interesting to see what these companies are that got the maximum of \$10 million. To do that, we could simply take our original data set and sort it from highest to lowest on the loan amount.

``` 
ppp_maryland_loans %>%
  arrange(desc(amount))
```

    ## # A tibble: 195,856 x 63
    ##         id name  slug  amount state address city  zip   naics_code business_type
    ##      <dbl> <chr> <chr>  <dbl> <chr> <chr>   <chr> <chr>      <dbl> <chr>        
    ##  1  9.38e7 GSE … gse-… 1   e7 MD    1332 L… Syke… 21784     333318 Corporation  
    ##  2  9.38e7 GMS … gms-… 1   e7 MD    PO Box… OAKL… 21550     212112 Corporation  
    ##  3  9.38e7 LEME… leme… 1   e7 MD    8184 L… ELKR… 2107…     722513 Subchapter S…
    ##  4  9.38e7 MISS… miss… 1   e7 MD    7750 G… Glen… 21061     722511 Limited  Lia…
    ##  5  9.38e7 PT N… pt-n… 1   e7 MD    501 Fa… Tows… 21286     621340 Limited  Lia…
    ##  6  9.38e7 SMAR… smar… 9.51e6 MD    1997 A… ANNA… 2140…     541611 Limited  Lia…
    ##  7  9.38e7 SILV… silv… 9.50e6 MD    12276 … ROCK… 2085…     722511 Limited  Lia…
    ##  8  9.38e7 D.A.… d-a-… 9.22e6 MD    1330 M… LAUR… 20708     238220 Limited  Lia…
    ##  9  9.38e7 VISI… visi… 9.14e6 MD    530 Mc… Glen… 21061     517311 Subchapter S…
    ## 10  9.38e7 YOUN… youn… 9.11e6 MD    303 W … Balt… 2120…     813410 501(c)3 – No…
    ## # … with 195,846 more rows, and 53 more variables: race <chr>, gender <chr>,
    ## #   veteran <chr>, non_profit <lgl>, jobs_retained <dbl>, date_approved <date>,
    ## #   lender <chr>, congressional_district <chr>, loan_range_sort_key <lgl>,
    ## #   previous_loan_range <lgl>, previous_name <lgl>, loan_number <dbl>,
    ## #   sba_office_code <dbl>, processing_method <chr>, loan_status <chr>,
    ## #   term <dbl>, sba_guaranty_percentage <dbl>, initial_approval_amount <dbl>,
    ## #   current_approval_amount <dbl>, undisbursed_amount <dbl>,
    ## #   franchise_name <chr>, servicing_lender_location_id <dbl>,
    ## #   servicing_lender_name <chr>, servicing_lender_address <chr>,
…
